{"failedCount":1,"prefixedPath":"src\/test\/java\/user\/user-get.feature","packageQualifiedName":"src.test.java.user.user-get","loopIndex":-1,"relativePath":"src\/test\/java\/user\/user-get.feature","scenarioResults":[{"sectionIndex":0,"stepResults":[{"result":{"nanos":124466500,"millis":124.4665,"status":"passed"},"step":{"line":3,"prefix":"Given","index":0,"text":"url \"https:\/\/reqres.in\" + \"\/api\/users?page=2\""}},{"result":{"nanos":887359000,"millis":887.359,"status":"passed"},"step":{"line":4,"prefix":"When","index":1,"text":"method get"},"stepLog":"11:36:34.438 request:\n1 > GET https:\/\/reqres.in\/api\/users?page=2\n1 > Host: reqres.in\n1 > Connection: Keep-Alive\n1 > User-Agent: Apache-HttpClient\/4.5.13 (Java\/18.0.2)\n1 > Accept-Encoding: gzip,deflate\n\n\n11:36:34.843 response time in milliseconds: 400\n1 < 200\n1 < Date: Thu, 29 Dec 2022 16:36:36 GMT\n1 < Content-Type: application\/json; charset=utf-8\n1 < Transfer-Encoding: chunked\n1 < Connection: keep-alive\n1 < X-Powered-By: Express\n1 < Access-Control-Allow-Origin: *\n1 < Etag: W\/\"406-ut0vzoCuidvyMf8arZpMpJ6ZRDw\"\n1 < Via: 1.1 vegur\n1 < Cache-Control: max-age=14400\n1 < CF-Cache-Status: HIT\n1 < Age: 51\n1 < Report-To: {\"endpoints\":[{\"url\":\"https:\\\/\\\/a.nel.cloudflare.com\\\/report\\\/v3?s=GULoeqO0xqF6kpnsSIOln93cgPLlyG3FgxnYJv%2FPEjY2UwnlfEWrJGnfcpV8Bn83IqZv6%2FUBFcLuaVR6hmilc6LHIgdMstuLIkr7Iun8V8SMgNjm1qWGYS3NvQ%3D%3D\"}],\"group\":\"cf-nel\",\"max_age\":604800}\n1 < NEL: {\"success_fraction\":0,\"report_to\":\"cf-nel\",\"max_age\":604800}\n1 < Vary: Accept-Encoding\n1 < Server: cloudflare\n1 < CF-RAY: 7813f4a2c8ed6dfd-LIM\n{\"page\":2,\"per_page\":6,\"total\":12,\"total_pages\":2,\"data\":[{\"id\":7,\"email\":\"michael.lawson@reqres.in\",\"first_name\":\"Michael\",\"last_name\":\"Lawson\",\"avatar\":\"https:\/\/reqres.in\/img\/faces\/7-image.jpg\"},{\"id\":8,\"email\":\"lindsay.ferguson@reqres.in\",\"first_name\":\"Lindsay\",\"last_name\":\"Ferguson\",\"avatar\":\"https:\/\/reqres.in\/img\/faces\/8-image.jpg\"},{\"id\":9,\"email\":\"tobias.funke@reqres.in\",\"first_name\":\"Tobias\",\"last_name\":\"Funke\",\"avatar\":\"https:\/\/reqres.in\/img\/faces\/9-image.jpg\"},{\"id\":10,\"email\":\"byron.fields@reqres.in\",\"first_name\":\"Byron\",\"last_name\":\"Fields\",\"avatar\":\"https:\/\/reqres.in\/img\/faces\/10-image.jpg\"},{\"id\":11,\"email\":\"george.edwards@reqres.in\",\"first_name\":\"George\",\"last_name\":\"Edwards\",\"avatar\":\"https:\/\/reqres.in\/img\/faces\/11-image.jpg\"},{\"id\":12,\"email\":\"rachel.howell@reqres.in\",\"first_name\":\"Rachel\",\"last_name\":\"Howell\",\"avatar\":\"https:\/\/reqres.in\/img\/faces\/12-image.jpg\"}],\"support\":{\"url\":\"https:\/\/reqres.in\/#support-heading\",\"text\":\"To keep ReqRes free, contributions towards server costs are appreciated!\"}}\n\n"},{"result":{"nanos":4887300,"millis":4.8873,"status":"passed"},"step":{"line":5,"prefix":"Then","index":2,"text":"status 200"}},{"result":{"nanos":109630300,"errorMessage":"match failed: EQUALS\n  $ | data types don't match (NUMBER:STRING)\n  2\n  '2'\n\nsrc\/test\/java\/user\/user-get.feature:6","millis":109.6303,"status":"failed"},"step":{"line":6,"prefix":"And","index":3,"text":"match $.page == '2'"},"stepLog":"11:36:35.013 src\/test\/java\/user\/user-get.feature:6\nAnd match $.page == '2'\nmatch failed: EQUALS\n  $ | data types don't match (NUMBER:STRING)\n  2\n  '2'\n\nsrc\/test\/java\/user\/user-get.feature:6\n"}],"line":2,"description":"","durationMillis":1126.3431,"failed":true,"error":"match failed: EQUALS\n  $ | data types don't match (NUMBER:STRING)\n  2\n  '2'\n\nsrc\/test\/java\/user\/user-get.feature:6","executorName":"main","name":"Get user list","startTime":1672331793866,"refId":"[1:2]","endTime":1672331795013,"exampleIndex":-1}],"callDepth":0,"name":"Get users from Reqres","description":"","resultDate":"2022-12-29 11:36:35 a. m.","durationMillis":1126.3431,"passedCount":0}