{"failedCount":1,"prefixedPath":"src\/test\/java\/user\/user-get.feature","packageQualifiedName":"src.test.java.user.user-get","loopIndex":-1,"relativePath":"src\/test\/java\/user\/user-get.feature","scenarioResults":[{"sectionIndex":1,"stepResults":[{"result":{"nanos":153641900,"millis":153.6419,"status":"passed"},"step":{"line":9,"prefix":"Given","index":0,"text":"url \"https:\/\/reqres.in\" + \"\/api\/unknown\""}},{"result":{"nanos":904307200,"millis":904.3072,"status":"passed"},"step":{"line":10,"prefix":"When","index":1,"text":"method get"},"stepLog":"11:38:26.411 request:\n1 > GET https:\/\/reqres.in\/api\/unknown\n1 > Host: reqres.in\n1 > Connection: Keep-Alive\n1 > User-Agent: Apache-HttpClient\/4.5.13 (Java\/18.0.2)\n1 > Accept-Encoding: gzip,deflate\n\n\n11:38:26.816 response time in milliseconds: 402\n1 < 200\n1 < Date: Thu, 29 Dec 2022 16:38:28 GMT\n1 < Content-Type: application\/json; charset=utf-8\n1 < Transfer-Encoding: chunked\n1 < Connection: keep-alive\n1 < X-Powered-By: Express\n1 < Access-Control-Allow-Origin: *\n1 < Etag: W\/\"2c1-N6Rqerxquq2kgQhL51EiSg4x0R8\"\n1 < Via: 1.1 vegur\n1 < Cache-Control: max-age=14400\n1 < CF-Cache-Status: HIT\n1 < Age: 3218\n1 < Report-To: {\"endpoints\":[{\"url\":\"https:\\\/\\\/a.nel.cloudflare.com\\\/report\\\/v3?s=d5EbglPAgO%2FwGnrOLcGOtYjHerr3Ub3CeOAChfhvp567vH1SL06VM1H%2B5XxJ3bTWUrL%2B7sJOct%2Fb3y3LcH4W7rqNH1FWLEPNxVn%2FLHyQNswo5%2FE72Hi2maoiKg%3D%3D\"}],\"group\":\"cf-nel\",\"max_age\":604800}\n1 < NEL: {\"success_fraction\":0,\"report_to\":\"cf-nel\",\"max_age\":604800}\n1 < Vary: Accept-Encoding\n1 < Server: cloudflare\n1 < CF-RAY: 7813f75ebf636dec-LIM\n{\"page\":1,\"per_page\":6,\"total\":12,\"total_pages\":2,\"data\":[{\"id\":1,\"name\":\"cerulean\",\"year\":2000,\"color\":\"#98B2D1\",\"pantone_value\":\"15-4020\"},{\"id\":2,\"name\":\"fuchsia rose\",\"year\":2001,\"color\":\"#C74375\",\"pantone_value\":\"17-2031\"},{\"id\":3,\"name\":\"true red\",\"year\":2002,\"color\":\"#BF1932\",\"pantone_value\":\"19-1664\"},{\"id\":4,\"name\":\"aqua sky\",\"year\":2003,\"color\":\"#7BC4C4\",\"pantone_value\":\"14-4811\"},{\"id\":5,\"name\":\"tigerlily\",\"year\":2004,\"color\":\"#E2583E\",\"pantone_value\":\"17-1456\"},{\"id\":6,\"name\":\"blue turquoise\",\"year\":2005,\"color\":\"#53B0AE\",\"pantone_value\":\"15-5217\"}],\"support\":{\"url\":\"https:\/\/reqres.in\/#support-heading\",\"text\":\"To keep ReqRes free, contributions towards server costs are appreciated!\"}}\n\n"},{"result":{"nanos":3613200,"millis":3.6132,"status":"passed"},"step":{"line":11,"prefix":"Then","index":2,"text":"status 200"}},{"result":{"nanos":0,"errorMessage":"no step-definition method match found for: match $.total > 10\nsrc\/test\/java\/user\/user-get.feature:12","millis":0.0,"status":"failed"},"step":{"line":12,"prefix":"And","index":3,"text":"match $.total > 10"},"stepLog":"11:38:26.854 src\/test\/java\/user\/user-get.feature:12\nAnd match $.total > 10\nno step-definition method match found for: match $.total > 10\nsrc\/test\/java\/user\/user-get.feature:12\n"}],"line":8,"description":"","durationMillis":1061.5623,"failed":true,"error":"no step-definition method match found for: match $.total > 10\nsrc\/test\/java\/user\/user-get.feature:12","executorName":"main","name":"Get list resources","startTime":1672331905771,"refId":"[2:8]","endTime":1672331906854,"exampleIndex":-1}],"callDepth":0,"name":"Get users from Reqres","description":"","resultDate":"2022-12-29 11:38:26 a. m.","durationMillis":1061.5623,"passedCount":0}